<?xml version="1.0" encoding="utf-8"?>
<!-- Generator: Adobe Illustrator 16.0.0, SVG Export Plug-In . SVG Version: 6.00 Build 0)  -->
<!DOCTYPE svg PUBLIC "-//W3C//DTD SVG 1.0//EN" "http://www.w3.org/TR/2001/REC-SVG-20010904/DTD/svg10.dtd">
<svg version="1.0" id="Layer_1" xmlns="http://www.w3.org/2000/svg" xmlns:xlink="http://www.w3.org/1999/xlink" x="0px" y="0px"
	 width="32px" height="32px" viewBox="0 0 32 32" enable-background="new 0 0 32 32" xml:space="preserve">
<g>
	<defs>
		<rect id="SVGID_1_" width="32" height="32"/>
	</defs>
	<clipPath id="SVGID_2_">
		<use xlink:href="#SVGID_1_"  overflow="visible"/>
	</clipPath>
	<path clip-path="url(#SVGID_2_)" fill="#DA4836" d="M12.751,8.768c-1.271-0.037-2.124,1.24-1.903,2.908
		c0.218,1.67,1.426,2.836,2.698,2.875c1.27,0.037,2.001-1.037,1.782-2.707C15.109,10.176,14.021,8.807,12.751,8.768"/>
	<path clip-path="url(#SVGID_2_)" fill="#DA4836" d="M13.285,17.967c-1.895-0.021-3.499,1.195-3.499,2.607
		c0,1.439,1.368,2.639,3.262,2.639c2.663,0,3.591-1.125,3.591-2.566c0-0.174-0.022-0.344-0.062-0.508
		c-0.209-0.814-1.037-1.262-2.066-1.977C14.139,18.041,13.726,17.971,13.285,17.967"/>
	<path clip-path="url(#SVGID_2_)" fill="#DA4836" d="M16,0c-8.836,0-16,7.164-16,16c0,8.837,7.164,16,16,16c8.837,0,16-7.163,16-16
		C32,7.165,24.837,0,16,0 M17.224,11.773c0,1.043-0.578,1.883-1.394,2.52c-0.797,0.623-0.947,0.882-0.947,1.412
		c0,0.451,0.951,1.123,1.388,1.451c1.522,1.143,1.831,1.861,1.831,3.289c0,1.783-1.92,3.556-5.044,3.556
		c-2.74,0-5.052-1.114-5.052-2.897c0-1.809,1.918-3.695,4.658-3.695c0.299,0,0.572-0.008,0.855-0.008
		c-0.375-0.363-0.677-0.678-0.677-1.229c0-0.329,0.103-0.64,0.25-0.919c-0.149,0.009-0.301,0.019-0.457,0.019
		c-2.251,0-3.562-1.582-3.562-3.564C9.073,9.766,11.068,8,13.461,8h4.715l-1.054,1.107h-1.238
		C16.759,9.607,17.224,10.637,17.224,11.773 M23.994,11.482h-2.176v2.174H20.73v-2.174h-2.175v-1.088h2.175V8.218h1.088v2.176h2.176
		V11.482z"/>
</g>
</svg>
